[
	"E:\\praca\\Automaster\\2014\\strona internetowa\\wordpress\\automaster-wordpress.sublime-project",
	"E:\\praca\\Corrigo\\Strona internetowa\\wordpress\\corrigo-medical-wordpress.sublime-project",
	"E:\\praca\\Fotosfero\\2015\\strona internetowa\\wordpress\\fotosfero-wordpress.sublime-project",
	"E:\\praca\\Gigbox\\gigbox-html.sublime-project",
	"E:\\praca\\Greetings From Poland\\2013\\strona internetowa\\wordpress\\greetingsfrompoland.sublime-project",
	"E:\\praca\\Magic Imagine Art\\2014\\sklep\\wordpress\\magicimagineart-sklep-wordpress.sublime-project",
	"E:\\praca\\Projekt Szkoleniowy\\projekt-szkoleniowy.sublime-project",
	"E:\\praca\\Rentall24\\System kontrolingu\\Kontrola24-html.sublime-project",
	"E:\\praca\\Turboprezent\\2014\\strona internetowa\\turboprezent-wordpress.sublime-project",
	"E:\\praca\\auto master show\\sublime-projects\\automaster-html.sublime-project",
	"E:\\praca\\deltima\\2014\\strona internetowa\\wordpress\\deltima-wordpress.sublime-project",
	"E:\\praca\\depcore\\2014\\strona internetowa\\wordpress\\depcore-v5-wordpress.sublime-project",
	"E:\\praca\\rumpelowo\\2014\\blog\\wordpress\\rumpelowo.sublime-project"
]
